{
  "files": {
    "0.cf19af80.iframe.bundle.js": "./0.cf19af80.iframe.bundle.js",
    "0.cf19af80.iframe.bundle.js.map": "./0.cf19af80.iframe.bundle.js.map",
    "1.ad91f69e.iframe.bundle.js": "./1.ad91f69e.iframe.bundle.js",
    "2.a372bc98.iframe.bundle.js": "./2.a372bc98.iframe.bundle.js",
    "main.css": "./static/css/main.9bd43fed.chunk.css",
    "main.js": "./main.3a6b1cf3.iframe.bundle.js",
    "main.css.map": "./static/css/main.9bd43fed.chunk.css.map",
    "runtime~main.js": "./runtime~main.fea9db5c.iframe.bundle.js",
    "vendors~main.js": "./vendors~main.971094d2.iframe.bundle.js",
    "vendors~main.js.map": "./vendors~main.971094d2.iframe.bundle.js.map",
    "6.fc2289e3.iframe.bundle.js": "./6.fc2289e3.iframe.bundle.js",
    "7.c7fd0269.iframe.bundle.js": "./7.c7fd0269.iframe.bundle.js",
    "7.c7fd0269.iframe.bundle.js.map": "./7.c7fd0269.iframe.bundle.js.map",
    "8.d23a36f0.iframe.bundle.js": "./8.d23a36f0.iframe.bundle.js",
    "0.cf19af80.iframe.bundle.js.LICENSE.txt": "./0.cf19af80.iframe.bundle.js.LICENSE.txt",
    "7.c7fd0269.iframe.bundle.js.LICENSE.txt": "./7.c7fd0269.iframe.bundle.js.LICENSE.txt",
    "iframe.html": "./iframe.html",
    "static/media/Icon-QC-boomdown.svg": "./static/media/Icon-QC-boomdown.27ac2030.svg",
    "static/media/Icon-QC-top.svg": "./static/media/Icon-QC-top.61227566.svg",
    "static/media/Icon-QC.svg": "./static/media/Icon-QC.3dc7d05b.svg",
    "static/media/Icon-add-column.svg": "./static/media/Icon-add-column.ed924cd7.svg",
    "static/media/Icon-add-row.svg": "./static/media/Icon-add-row.a68f6bc1.svg",
    "static/media/Icon-add.svg": "./static/media/Icon-add.5ead1adb.svg",
    "static/media/Icon-adjust.svg": "./static/media/Icon-adjust.bf895b21.svg",
    "static/media/Icon-alarm-fill.svg": "./static/media/Icon-alarm-fill.76d29322.svg",
    "static/media/Icon-alarm.svg": "./static/media/Icon-alarm.8f71f317.svg",
    "static/media/Icon-alert-triangle.svg": "./static/media/Icon-alert-triangle.5b4e53fb.svg",
    "static/media/Icon-alert.svg": "./static/media/Icon-alert.d1a80f71.svg",
    "static/media/Icon-anchor.svg": "./static/media/Icon-anchor.01d052db.svg",
    "static/media/Icon-angle-down.svg": "./static/media/Icon-angle-down.daf85872.svg",
    "static/media/Icon-angle-left.svg": "./static/media/Icon-angle-left.e1771109.svg",
    "static/media/Icon-angle-right.svg": "./static/media/Icon-angle-right.6b542f12.svg",
    "static/media/Icon-angle-up.svg": "./static/media/Icon-angle-up.2e84eb46.svg",
    "static/media/Icon-arrow-left.svg": "./static/media/Icon-arrow-left.297726f8.svg",
    "static/media/Icon-arrow-right.svg": "./static/media/Icon-arrow-right.0fdee674.svg",
    "static/media/Icon-attach.svg": "./static/media/Icon-attach.0bcd950e.svg",
    "static/media/Icon-auto-text.svg": "./static/media/Icon-auto-text.5e126f13.svg",
    "static/media/Icon-between.svg": "./static/media/Icon-between.6f0d6dab.svg",
    "static/media/Icon-bitt.svg": "./static/media/Icon-bitt.2e1746be.svg",
    "static/media/Icon-calendar.svg": "./static/media/Icon-calendar.5125fdf0.svg",
    "static/media/Icon-capture.svg": "./static/media/Icon-capture.37977e47.svg",
    "static/media/Icon-chart-view.svg": "./static/media/Icon-chart-view.c37b0a6d.svg",
    "static/media/Icon-clock-fill.svg": "./static/media/Icon-clock-fill.cfbb92d2.svg",
    "static/media/Icon-clock.svg": "./static/media/Icon-clock.4fe960e7.svg",
    "static/media/Icon-column-setting.svg": "./static/media/Icon-column-setting.e62575b9.svg",
    "static/media/Icon-column.svg": "./static/media/Icon-column.3a79657e.svg",
    "static/media/Icon-connect.svg": "./static/media/Icon-connect.b63eb1e1.svg",
    "static/media/Icon-container.svg": "./static/media/Icon-container.db3514b9.svg",
    "static/media/Icon-copy.svg": "./static/media/Icon-copy.d6b576ff.svg",
    "static/media/Icon-cross-small.svg": "./static/media/Icon-cross-small.17a43d6f.svg",
    "static/media/Icon-cross.svg": "./static/media/Icon-cross.d7c356fc.svg",
    "static/media/Icon-cursor-drag.svg": "./static/media/Icon-cursor-drag.deb99bd1.svg",
    "static/media/Icon-cursor-leftAdjust.svg": "./static/media/Icon-cursor-leftAdjust.037e9d65.svg",
    "static/media/Icon-cursor-leftright.svg": "./static/media/Icon-cursor-leftright.24e264b1.svg",
    "static/media/Icon-cursor-move.svg": "./static/media/Icon-cursor-move.c72f9385.svg",
    "static/media/Icon-cursor-pointer.svg": "./static/media/Icon-cursor-pointer.c0b1b62f.svg",
    "static/media/Icon-cursor-resize.svg": "./static/media/Icon-cursor-resize.aab384b1.svg",
    "static/media/Icon-cursor-rightAdjust.svg": "./static/media/Icon-cursor-rightAdjust.542ab5bd.svg",
    "static/media/Icon-cursor-stop.svg": "./static/media/Icon-cursor-stop.20743cd4.svg",
    "static/media/Icon-cursor-updown.svg": "./static/media/Icon-cursor-updown.8eca9360.svg",
    "static/media/Icon-cut.svg": "./static/media/Icon-cut.629eacd2.svg",
    "static/media/Icon-cwp-DS-RR_QW.svg": "./static/media/Icon-cwp-DS-RR_QW.2a41dcfd.svg",
    "static/media/Icon-cwp-DS-RR_WQ.svg": "./static/media/Icon-cwp-DS-RR_WQ.80f2ce7b.svg",
    "static/media/Icon-cwp-DS-TT_QW.svg": "./static/media/Icon-cwp-DS-TT_QW.ef0a00d3.svg",
    "static/media/Icon-cwp-DS-TT_WQ.svg": "./static/media/Icon-cwp-DS-TT_WQ.948e0351.svg",
    "static/media/Icon-cwp-LD-RR_QW.svg": "./static/media/Icon-cwp-LD-RR_QW.33806e3e.svg",
    "static/media/Icon-cwp-LD-RR_WQ.svg": "./static/media/Icon-cwp-LD-RR_WQ.f0d71543.svg",
    "static/media/Icon-cwp-LD-TT_QW.svg": "./static/media/Icon-cwp-LD-TT_QW.529000f2.svg",
    "static/media/Icon-cwp-LD-TT_WQ.svg": "./static/media/Icon-cwp-LD-TT_WQ.dffbe686.svg",
    "static/media/Icon-cwp-bay.svg": "./static/media/Icon-cwp-bay.15111c4b.svg",
    "static/media/Icon-cwp-evenly.svg": "./static/media/Icon-cwp-evenly.5a7cd026.svg",
    "static/media/Icon-cwp-hatch.svg": "./static/media/Icon-cwp-hatch.fb39b358.svg",
    "static/media/Icon-cwp-hatchCover.svg": "./static/media/Icon-cwp-hatchCover.7819b95e.svg",
    "static/media/Icon-cwp-hatchSection.svg": "./static/media/Icon-cwp-hatchSection.c498692f.svg",
    "static/media/Icon-cwp-sameComplete.svg": "./static/media/Icon-cwp-sameComplete.0d43242e.svg",
    "static/media/Icon-derrick.svg": "./static/media/Icon-derrick.10e1de1b.svg",
    "static/media/Icon-detach.svg": "./static/media/Icon-detach.f31d1bed.svg",
    "static/media/Icon-disease.svg": "./static/media/Icon-disease.e545f4a8.svg",
    "static/media/Icon-divide.svg": "./static/media/Icon-divide.95391c7a.svg",
    "static/media/Icon-doc-disable.svg": "./static/media/Icon-doc-disable.ef5de2b8.svg",
    "static/media/Icon-doc-enable.svg": "./static/media/Icon-doc-enable.de96a523.svg",
    "static/media/Icon-doc.svg": "./static/media/Icon-doc.ccdaf92f.svg",
    "static/media/Icon-docs-add-disable.svg": "./static/media/Icon-docs-add-disable.28cb6f28.svg",
    "static/media/Icon-docs-add-enable.svg": "./static/media/Icon-docs-add-enable.768444a6.svg",
    "static/media/Icon-docs-add.svg": "./static/media/Icon-docs-add.e64106c1.svg",
    "static/media/Icon-docs-fill-disable.svg": "./static/media/Icon-docs-fill-disable.65d0b9fc.svg",
    "static/media/Icon-docs-fill-enable.svg": "./static/media/Icon-docs-fill-enable.08e8e19a.svg",
    "static/media/Icon-docs-fill.svg": "./static/media/Icon-docs-fill.eff84e38.svg",
    "static/media/Icon-docs-list-disable.svg": "./static/media/Icon-docs-list-disable.bb615e69.svg",
    "static/media/Icon-docs-list-enable.svg": "./static/media/Icon-docs-list-enable.b2e88cea.svg",
    "static/media/Icon-docs-list.svg": "./static/media/Icon-docs-list.160d445a.svg",
    "static/media/Icon-drag-hand-disable.svg": "./static/media/Icon-drag-hand-disable.78029133.svg",
    "static/media/Icon-drag-hand-enable.svg": "./static/media/Icon-drag-hand-enable.b811e62f.svg",
    "static/media/Icon-drag-hand.svg": "./static/media/Icon-drag-hand.e9c14dab.svg",
    "static/media/Icon-drag.svg": "./static/media/Icon-drag.1c52503c.svg",
    "static/media/Icon-dropdown.svg": "./static/media/Icon-dropdown.ea7daf4a.svg",
    "static/media/Icon-droplet.svg": "./static/media/Icon-droplet.443b8c1c.svg",
    "static/media/Icon-duplicate.svg": "./static/media/Icon-duplicate.ec6334fe.svg",
    "static/media/Icon-empty.svg": "./static/media/Icon-empty.cf78b14f.svg",
    "static/media/Icon-enlarge.svg": "./static/media/Icon-enlarge.d8f0fda4.svg",
    "static/media/Icon-equal.svg": "./static/media/Icon-equal.a8a41a5d.svg",
    "static/media/Icon-eye-close.svg": "./static/media/Icon-eye-close.111612b5.svg",
    "static/media/Icon-eye-open.svg": "./static/media/Icon-eye-open.475c37f8.svg",
    "static/media/Icon-fast.svg": "./static/media/Icon-fast.555ea8e9.svg",
    "static/media/Icon-feeder.svg": "./static/media/Icon-feeder.e785c52a.svg",
    "static/media/Icon-filter.svg": "./static/media/Icon-filter.389aca84.svg",
    "static/media/Icon-floorplan-view.svg": "./static/media/Icon-floorplan-view.08004ac1.svg",
    "static/media/Icon-fog.svg": "./static/media/Icon-fog.f1801fd5.svg",
    "static/media/Icon-greater-equal.svg": "./static/media/Icon-greater-equal.ce05a574.svg",
    "static/media/Icon-greater.svg": "./static/media/Icon-greater.4a3df396.svg",
    "static/media/Icon-grid-view.svg": "./static/media/Icon-grid-view.ae3eea53.svg",
    "static/media/Icon-group.svg": "./static/media/Icon-group.ecf41752.svg",
    "static/media/Icon-help.svg": "./static/media/Icon-help.e8eb64cc.svg",
    "static/media/Icon-home-fill.svg": "./static/media/Icon-home-fill.68950fd2.svg",
    "static/media/Icon-home.svg": "./static/media/Icon-home.f13e7281.svg",
    "static/media/Icon-hot.svg": "./static/media/Icon-hot.936d4d6c.svg",
    "static/media/Icon-import.svg": "./static/media/Icon-import.36ae1f3e.svg",
    "static/media/Icon-lashing.svg": "./static/media/Icon-lashing.bffe228b.svg",
    "static/media/Icon-less-equal.svg": "./static/media/Icon-less-equal.63614a9d.svg",
    "static/media/Icon-less.svg": "./static/media/Icon-less.dc64ba18.svg",
    "static/media/Icon-link-break.svg": "./static/media/Icon-link-break.02ccc7ce.svg",
    "static/media/Icon-link.svg": "./static/media/Icon-link.a0b05c4e.svg",
    "static/media/Icon-location-fill.svg": "./static/media/Icon-location-fill.5b16eff6.svg",
    "static/media/Icon-location.svg": "./static/media/Icon-location.34b086b1.svg",
    "static/media/Icon-lock-fill.svg": "./static/media/Icon-lock-fill.b10479fe.svg",
    "static/media/Icon-lock-open-fill.svg": "./static/media/Icon-lock-open-fill.da513f61.svg",
    "static/media/Icon-lock-open.svg": "./static/media/Icon-lock-open.b05521f2.svg",
    "static/media/Icon-lock.svg": "./static/media/Icon-lock.186a5aac.svg",
    "static/media/Icon-logout.svg": "./static/media/Icon-logout.099d457f.svg",
    "static/media/Icon-mail.svg": "./static/media/Icon-mail.c539770e.svg",
    "static/media/Icon-map.svg": "./static/media/Icon-map.adc1a5fe.svg",
    "static/media/Icon-meal.svg": "./static/media/Icon-meal.554ef79d.svg",
    "static/media/Icon-menu.svg": "./static/media/Icon-menu.f51ee583.svg",
    "static/media/Icon-message.svg": "./static/media/Icon-message.6c28be91.svg",
    "static/media/Icon-minimise.svg": "./static/media/Icon-minimise.d355c15c.svg",
    "static/media/Icon-moon.svg": "./static/media/Icon-moon.0e701c92.svg",
    "static/media/Icon-more-fill.svg": "./static/media/Icon-more-fill.14b3e556.svg",
    "static/media/Icon-more.svg": "./static/media/Icon-more.4a5f4485.svg",
    "static/media/Icon-mouse-rightclick.svg": "./static/media/Icon-mouse-rightclick.b538bfdb.svg",
    "static/media/Icon-mouse-scroll.svg": "./static/media/Icon-mouse-scroll.3a4f1699.svg",
    "static/media/Icon-mouse.svg": "./static/media/Icon-mouse.91917b3a.svg",
    "static/media/Icon-move-leftright.svg": "./static/media/Icon-move-leftright.81ce049c.svg",
    "static/media/Icon-move-updown.svg": "./static/media/Icon-move-updown.37802c41.svg",
    "static/media/Icon-multiply.svg": "./static/media/Icon-multiply.bf1ec88f.svg",
    "static/media/Icon-newfull-view.svg": "./static/media/Icon-newfull-view.7dbe91a3.svg",
    "static/media/Icon-not-equal.svg": "./static/media/Icon-not-equal.1cad9208.svg",
    "static/media/Icon-number.svg": "./static/media/Icon-number.ea94d624.svg",
    "static/media/Icon-overflow.svg": "./static/media/Icon-overflow.10b520a0.svg",
    "static/media/Icon-paint.svg": "./static/media/Icon-paint.06c2b008.svg",
    "static/media/Icon-palette.svg": "./static/media/Icon-palette.789e212e.svg",
    "static/media/Icon-paste.svg": "./static/media/Icon-paste.0892f2f7.svg",
    "static/media/Icon-pause.svg": "./static/media/Icon-pause.2a0bef52.svg",
    "static/media/Icon-pen-fill.svg": "./static/media/Icon-pen-fill.eef2b78c.svg",
    "static/media/Icon-pen.svg": "./static/media/Icon-pen.e774363f.svg",
    "static/media/Icon-pin-fill.svg": "./static/media/Icon-pin-fill.97e4f676.svg",
    "static/media/Icon-pin.svg": "./static/media/Icon-pin.e3e13713.svg",
    "static/media/Icon-port-bullet.svg": "./static/media/Icon-port-bullet.90679b6b.svg",
    "static/media/Icon-port-links.svg": "./static/media/Icon-port-links.1f32b50c.svg",
    "static/media/Icon-reload-partial.svg": "./static/media/Icon-reload-partial.8cdf7d2b.svg",
    "static/media/Icon-reload-stop.svg": "./static/media/Icon-reload-stop.019df870.svg",
    "static/media/Icon-reload.svg": "./static/media/Icon-reload.282e8f04.svg",
    "static/media/Icon-reset.svg": "./static/media/Icon-reset.41315bcb.svg",
    "static/media/Icon-row.svg": "./static/media/Icon-row.85ab6eaf.svg",
    "static/media/Icon-save-copy.svg": "./static/media/Icon-save-copy.4f882511.svg",
    "static/media/Icon-save.svg": "./static/media/Icon-save.22694d2a.svg",
    "static/media/Icon-search.svg": "./static/media/Icon-search.0a0769a2.svg",
    "static/media/Icon-send.svg": "./static/media/Icon-send.e527bef5.svg",
    "static/media/Icon-setting.svg": "./static/media/Icon-setting.9eaea8f4.svg",
    "static/media/Icon-side-port.svg": "./static/media/Icon-side-port.31d1a8f3.svg",
    "static/media/Icon-side-starboard.svg": "./static/media/Icon-side-starboard.48ba93e6.svg",
    "static/media/Icon-snow.svg": "./static/media/Icon-snow.52f3be39.svg",
    "static/media/Icon-sort-alpha-alt.svg": "./static/media/Icon-sort-alpha-alt.36e452f4.svg",
    "static/media/Icon-sort-alpha.svg": "./static/media/Icon-sort-alpha.03435199.svg",
    "static/media/Icon-split-cell.svg": "./static/media/Icon-split-cell.61ebe0f5.svg",
    "static/media/Icon-split-row.svg": "./static/media/Icon-split-row.6bf5a1c0.svg",
    "static/media/Icon-spring.svg": "./static/media/Icon-spring.2793212e.svg",
    "static/media/Icon-star.svg": "./static/media/Icon-star.5dea3efd.svg",
    "static/media/Icon-sun.svg": "./static/media/Icon-sun.4e7267af.svg",
    "static/media/Icon-sunset.svg": "./static/media/Icon-sunset.038aa331.svg",
    "static/media/Icon-tab-view.svg": "./static/media/Icon-tab-view.09839500.svg",
    "static/media/Icon-table-setting.svg": "./static/media/Icon-table-setting.c722be43.svg",
    "static/media/Icon-table-view.svg": "./static/media/Icon-table-view.411dd5e5.svg",
    "static/media/Icon-tech-info.svg": "./static/media/Icon-tech-info.f35fec53.svg",
    "static/media/Icon-tick-fill.svg": "./static/media/Icon-tick-fill.2ce3d5a9.svg",
    "static/media/Icon-tick.svg": "./static/media/Icon-tick.682e3b25.svg",
    "static/media/Icon-transshipment.svg": "./static/media/Icon-transshipment.39c1a463.svg",
    "static/media/Icon-trash.svg": "./static/media/Icon-trash.3eeff464.svg",
    "static/media/Icon-typhoon.svg": "./static/media/Icon-typhoon.c48ec244.svg",
    "static/media/Icon-ungroup.svg": "./static/media/Icon-ungroup.59e833fe.svg",
    "static/media/Icon-upload.svg": "./static/media/Icon-upload.9a4222bd.svg",
    "static/media/Icon-user-fill.svg": "./static/media/Icon-user-fill.7ad4b578.svg",
    "static/media/Icon-user.svg": "./static/media/Icon-user.f1a8c6ea.svg",
    "static/media/Icon-userlocation-fill.svg": "./static/media/Icon-userlocation-fill.39293167.svg",
    "static/media/code-brackets.2e1112d7.svg": "./static/media/code-brackets.2e1112d7.svg",
    "static/media/colors.a4bd0486.svg": "./static/media/colors.a4bd0486.svg",
    "static/media/comments.a3859089.svg": "./static/media/comments.a3859089.svg",
    "static/media/direction.b770f9af.svg": "./static/media/direction.b770f9af.svg",
    "static/media/flow.edad2ac1.svg": "./static/media/flow.edad2ac1.svg",
    "static/media/plugin.d494b228.svg": "./static/media/plugin.d494b228.svg",
    "static/media/repo.6d496322.svg": "./static/media/repo.6d496322.svg",
    "static/media/stackalt.dba9fbb3.svg": "./static/media/stackalt.dba9fbb3.svg",
    "vendors~main.971094d2.iframe.bundle.js.LICENSE.txt": "./vendors~main.971094d2.iframe.bundle.js.LICENSE.txt"
  },
  "entrypoints": [
    "runtime~main.fea9db5c.iframe.bundle.js",
    "vendors~main.971094d2.iframe.bundle.js",
    "static/css/main.9bd43fed.chunk.css",
    "main.3a6b1cf3.iframe.bundle.js"
  ]
}