<?xml version="1.0" encoding="UTF-8"?>
<svg width="24px" height="24px" viewBox="0 0 24 24" version="1.1" xmlns="http://www.w3.org/2000/svg" xmlns:xlink="http://www.w3.org/1999/xlink">
    <title>Icon/Icon-user</title>
    <g id="Icon/Icon-user" stroke="none" stroke-width="1" fill="none" fill-rule="evenodd">
        <path d="M12,1.5 C17.799,1.5 22.5,6.201 22.5,12 C22.5,15.037 21.211,17.772 19.15,19.689 L19.15,19.7 L19.138,19.701 C17.265,21.438 14.756,22.5 12,22.5 C9.244,22.5 6.735,21.438 4.862,19.701 L4.85,19.7 L4.85,19.689 C2.789,17.772 1.5,15.037 1.5,12 C1.5,6.201 6.201,1.5 12,1.5 M12,13.2 C8.751,13.2 6.082,15.867 5.864,19.254 C7.521,20.655 9.662,21.5 12,21.5 C14.338,21.5 16.479,20.655 18.135,19.254 C17.918,15.867 15.249,13.2 12,13.2 M12,2.5 C6.753,2.5 2.5,6.753 2.5,12 C2.5,14.456 3.432,16.694 4.961,18.38 C5.46,15.431 7.602,13.075 10.364,12.397 C8.659,11.74 7.45,10.086 7.45,8.15 C7.45,5.637 9.487,3.6 12,3.6 C14.513,3.6 16.55,5.637 16.55,8.15 C16.55,10.086 15.341,11.74 13.636,12.397 C16.398,13.075 18.54,15.431 19.04,18.379 C20.568,16.694 21.5,14.456 21.5,12 C21.5,6.753 17.247,2.5 12,2.5 M12,4.6 C10.04,4.6 8.45,6.189 8.45,8.15 C8.45,10.111 10.04,11.7 12,11.7 C13.96,11.7 15.55,10.111 15.55,8.15 C15.55,6.189 13.96,4.6 12,4.6" id="Fill-1" fill="#002E6D"></path>
    </g>
</svg>