<?xml version="1.0" encoding="UTF-8"?>
<svg width="24px" height="24px" viewBox="0 0 24 24" version="1.1" xmlns="http://www.w3.org/2000/svg" xmlns:xlink="http://www.w3.org/1999/xlink">
    <title>Icon/Icon-reload</title>
    <g id="Icon/Icon-reload" stroke="none" stroke-width="1" fill="none" fill-rule="evenodd">
        <path d="M20.24995,13.4999538 L20.24995,19.4999538 L19.24995,19.4999538 L19.24995,15.9209538 C18.33295,17.7369538 16.69495,19.1939538 14.63395,19.9029538 C10.58995,21.2959538 6.23795,19.3849538 4.79795,15.6099538 L4.71595,15.3859538 L5.66195,15.0609538 C6.82895,18.4489538 10.69595,20.2019538 14.30895,18.9579538 C16.47695,18.2109538 18.10695,16.5279538 18.75495,14.5009538 L14.24995,14.4999538 L14.24995,13.4999538 L20.24995,13.4999538 Z" id="Fill-1" fill="#002E6D"></path>
        <path d="M19.20205,8.38965381 L19.28405,8.61365381 L18.33805,8.93965381 C17.17105,5.55165381 13.30405,3.79865381 9.69105,5.04165381 C7.51205,5.79265381 5.87605,7.48865381 5.23505,9.53065381 L9.75005,9.53065381 L9.75005,10.5306538 L3.75005,10.5306538 L3.75005,4.53065381 L4.75005,4.53065381 L4.74905,8.07865381 C5.66705,6.26365381 7.30505,4.80665381 9.36605,4.09665381 C13.41005,2.70365381 17.76205,4.61465381 19.20205,8.38965381" id="Fill-3" fill="#002E6D"></path>
    </g>
</svg>