<?xml version="1.0" encoding="UTF-8"?>
<svg width="24px" height="24px" viewBox="0 0 24 24" version="1.1" xmlns="http://www.w3.org/2000/svg" xmlns:xlink="http://www.w3.org/1999/xlink">
    <title>Icon/Icon-star</title>
    <g id="Icon/Icon-star" stroke="none" stroke-width="1" fill="none" fill-rule="evenodd">
        <path d="M11.6328845,2.335975 C11.7748845,2.018975 12.2258845,2.018975 12.3668845,2.335975 L14.8988845,8.047975 L15.1818845,8.647975 L15.8178845,8.719975 L22.0248845,9.367975 C22.3698845,9.403975 22.5098845,9.832975 22.2518845,10.064975 L17.6198845,14.232975 L17.1248845,14.692975 L17.2668845,15.328975 L18.5648845,21.415975 C18.6368845,21.754975 18.2738845,22.019975 17.9728845,21.847975 L12.5658845,18.757975 L11.9998845,18.403975 L11.4348845,18.757975 L6.02788455,21.847975 C5.72688455,22.019975 5.36288455,21.754975 5.43588455,21.415975 L6.73388455,15.328975 L6.87488455,14.692975 L6.37988455,14.232975 L1.74788455,10.064975 C1.48988455,9.832975 1.62988455,9.403975 1.97588455,9.367975 L8.18288455,8.719975 L8.81888455,8.647975 L9.10188455,8.047975 L11.6328845,2.335975 Z" id="Fill-1" fill="#002E6D"></path>
    </g>
</svg>