<?xml version="1.0" encoding="UTF-8"?>
<svg width="24px" height="24px" viewBox="0 0 24 24" version="1.1" xmlns="http://www.w3.org/2000/svg" xmlns:xlink="http://www.w3.org/1999/xlink">
    <title>Icon/Icon-attach</title>
    <g id="Icon/Icon-attach" stroke="none" stroke-width="1" fill="none" fill-rule="evenodd">
        <path d="M22.337,2.5955 L22.336,6.7815 L22.337,6.7815 L22.337,21.4045 L1.663,21.4045 L1.663,2.5955 L22.337,2.5955 Z M21.337,3.5965 L2.663,3.5965 L2.663,20.4045 L4.087,20.4045 L4.087,6.7815 L21.336,6.7815 L21.337,3.5965 Z M21.337,7.8315 L5.121,7.8315 L5.121,20.4045 L21.337,20.4045 L21.337,7.8315 Z" id="Combined-Shape" fill="#002E6D"></path>
    </g>
</svg>