<?xml version="1.0" encoding="UTF-8"?>
<svg width="24px" height="24px" viewBox="0 0 24 24" version="1.1" xmlns="http://www.w3.org/2000/svg" xmlns:xlink="http://www.w3.org/1999/xlink">
    <title>Icon/Icon-less</title>
    <g id="Icon/Icon-less" stroke="none" stroke-width="1" fill="none" fill-rule="evenodd">
        <polygon id="Fill-1" fill="#002E6D" points="20.305 4.3755 3.286 11.9995 20.305 19.6245 20.714 18.7115 5.732 11.9995 20.714 5.2885"></polygon>
    </g>
</svg>