<?xml version="1.0" encoding="UTF-8"?>
<svg width="24px" height="24px" viewBox="0 0 24 24" version="1.1" xmlns="http://www.w3.org/2000/svg" xmlns:xlink="http://www.w3.org/1999/xlink">
    <title>Icon/Icon-docs-add</title>
    <g id="Icon/Icon-docs-add" stroke="none" stroke-width="1" fill="none" fill-rule="evenodd">
        <polygon id="Fill-1" fill="#b4b4b4" points="7.6585 9.0358 16.6895 9.0358 16.6895 8.0358 7.6585 8.0358"></polygon>
        <polygon id="Fill-2" fill="#b4b4b4" points="7.6585 11.9948 16.6895 11.9948 16.6895 10.9948 7.6585 10.9948"></polygon>
        <polygon id="Fill-3" fill="#b4b4b4" points="7.6585 15.0158 16.6895 15.0158 16.6895 14.0158 7.6585 14.0158"></polygon>
        <polygon id="Fill-4" fill="#b4b4b4" points="7.6585 18.0698 12.6825 18.0698 12.6825 17.0698 7.6585 17.0698"></polygon>
        <polygon id="Fill-5" fill="#b4b4b4" points="19.3428 15.0698 19.3428 17.0728 17.3398 17.0738 17.3398 18.0738 19.3428 18.0728 19.3428 20.0688 20.3428 20.0688 20.3428 18.0728 22.3388 18.0738 22.3388 17.0738 20.3428 17.0728 20.3428 15.0698"></polygon>
        <path d="M3.6585,2 L3.6585,22 L20.3415,22 L20.3415,21 L19.3415,21 L16.9365,21 L4.6585,21 L4.6585,3 L15.4845,3 L15.4845,6.534 L19.3415,6.534 L19.3415,14.016 L20.3415,14.016 L20.3415,5.773 L16.0295,2 L3.6585,2 Z M16.4845,3.726 L18.5505,5.534 L16.4845,5.534 L16.4845,3.726 Z" id="Fill-6" fill="#b4b4b4"></path>
    </g>
</svg>