<?xml version="1.0" encoding="UTF-8"?>
<svg width="24px" height="24px" viewBox="0 0 24 24" version="1.1" xmlns="http://www.w3.org/2000/svg" xmlns:xlink="http://www.w3.org/1999/xlink">
    <title>Icon/Icon-cursor-leftright</title>
    <g id="Icon/Icon-cursor-leftright" stroke="none" stroke-width="1" fill="none" fill-rule="evenodd">
        <polygon id="Fill-1" fill="#000000" points="11.24935 22.8075 12.74935 22.8075 12.74935 1.1945 11.24935 1.1945"></polygon>
        <polygon id="Fill-2" fill="#000000" points="1.36585 11.9773 5.96185 16.5743 7.03085 15.5063 4.23885 12.7143 9.68385 12.7143 9.68385 11.2153 4.25085 11.2153 7.04885 8.4173 5.98785 7.3563"></polygon>
        <polygon id="Fill-3" fill="#000000" points="18.01275 7.3564 16.95175 8.4174 19.74975 11.2144 14.31675 11.2144 14.31675 12.7144 19.76175 12.7144 16.96975 15.5054 18.03775 16.5744 22.63475 11.9774"></polygon>
        <polygon id="Path" fill="#FFFFFF" points="16.24465 8.4169 18.54265 10.7149 13.81665 10.7149 13.81665 13.2149 18.55465 13.2149 16.26265 15.5059 18.03765 17.2809 23.34065 11.9769 18.01365 6.6489"></polygon>
        <polygon id="Path" fill="#FFFFFF" points="10.75035 23.3065 13.25035 23.3065 13.25035 0.6935 10.75035 0.6935"></polygon>
        <polygon id="Path" fill="#000000" points="11.24935 22.8075 12.74935 22.8075 12.74935 1.1945 11.24935 1.1945"></polygon>
        <polygon id="Path" fill="#FFFFFF" points="0.65935 11.9773 5.96235 17.2813 7.73735 15.5063 5.44535 13.2143 10.18435 13.2143 10.18435 10.7143 5.45735 10.7143 7.75535 8.4173 5.98835 6.6493"></polygon>
        <polygon id="Path" fill="#000000" points="1.36535 11.9773 5.98835 7.3563 7.04835 8.4173 4.25035 11.2153 9.68335 11.2153 9.68335 12.7143 4.23835 12.7143 7.03035 15.5063 5.96235 16.5743"></polygon>
        <polygon id="Path" fill="#000000" points="14.31665 11.2149 19.74965 11.2149 16.95165 8.4169 18.01365 7.3569 22.63465 11.9769 18.03765 16.5749 16.96965 15.5059 19.76165 12.7149 14.31665 12.7149"></polygon>
    </g>
</svg>