<?xml version="1.0" encoding="UTF-8"?>
<svg width="24px" height="24px" viewBox="0 0 24 24" version="1.1" xmlns="http://www.w3.org/2000/svg" xmlns:xlink="http://www.w3.org/1999/xlink">
    <title>Icon/Icon-reset</title>
    <g id="Icon/Icon-reset" stroke="none" stroke-width="1" fill="none" fill-rule="evenodd">
        <path d="M11.129,2.01869934 L11.216,3.01569934 C6.264,3.44869934 2.601,7.81369934 3.034,12.7656993 C3.468,17.7166993 7.833,21.3796993 12.784,20.9466993 C17.736,20.5136993 21.4,16.1476993 20.966,11.1966993 C20.696,8.11269934 19.058,5.83369934 16,4.32069934 L16,9.98069934 L15,9.98069934 L15,2.98069934 L22,2.98069934 L22,3.98069934 L17.453,3.97869934 C20.177,5.63969934 21.692,8.02569934 21.962,11.1086993 C22.443,16.6106993 18.373,21.4616993 12.871,21.9426993 C7.37,22.4236993 2.52,18.3536993 2.038,12.8516993 C1.565,7.44369934 5.49,2.66469934 10.85,2.04669934 L11.129,2.01869934 Z" id="Fill-1" fill="#002E6D"></path>
    </g>
</svg>