<?xml version="1.0" encoding="UTF-8"?>
<svg width="24px" height="24px" viewBox="0 0 24 24" version="1.1" xmlns="http://www.w3.org/2000/svg" xmlns:xlink="http://www.w3.org/1999/xlink">
    <title>Icon/Icon-trash</title>
    <g id="Icon/Icon-trash" stroke="none" stroke-width="1" fill="none" fill-rule="evenodd">
        <g id="Group" transform="translate(3.000000, 2.750400)" fill="#002E6D">
            <path d="M2.5,15.499 C2.5,16.553 3.316,17.417 4.351,17.494 L4.5,17.499 L13.5,17.499 C14.554,17.499 15.418,16.683 15.495,15.648 L15.5,15.499 L15.5,2.499 L16.5,2.499 L16.5,15.499 C16.5,17.156 15.157,18.499 13.5,18.499 L4.5,18.499 C2.843,18.499 1.5,17.156 1.5,15.499 L1.5,2.499 L2.5,2.499 L2.5,15.499 Z" id="Combined-Shape"></path>
            <polygon id="Fill-3" points="8.5 14.8741 9.5 14.8741 9.5 6.1241 8.5 6.1241"></polygon>
            <polygon id="Fill-5" points="12 14.8741 13 14.8741 13 6.1241 12 6.1241"></polygon>
            <polygon id="Fill-6" points="5 14.8741 6 14.8741 6 6.1241 5 6.1241"></polygon>
            <polygon id="Fill-7" points="0 3.5001 18 3.5001 18 2.5001 0 2.5001"></polygon>
            <polygon id="Fill-8" points="12.8604 0 13.6934 2.5 12.6394 2.5 12.1394 1 5.8604 1 5.3604 2.5 4.3064 2.5 5.1394 0"></polygon>
        </g>
    </g>
</svg>