<?xml version="1.0" encoding="UTF-8"?>
<svg width="24px" height="24px" viewBox="0 0 24 24" version="1.1" xmlns="http://www.w3.org/2000/svg" xmlns:xlink="http://www.w3.org/1999/xlink">
    <title>Icon/Icon-location</title>
    <g id="Icon/Icon-location" stroke="none" stroke-width="1" fill="none" fill-rule="evenodd">
        <path d="M11.9997,12 C10.2647,12 8.8577,10.594 8.8577,8.858 C8.8577,7.123 10.2647,5.717 11.9997,5.717 C13.7347,5.717 15.1417,7.123 15.1417,8.858 C15.1397,10.593 13.7337,11.998 11.9997,12 M11.9997,1.004 C7.6637,1.004 4.1457,4.171 4.1457,8.072 C4.1457,14.356 11.9997,22.996 11.9997,22.996 C11.9997,22.996 19.8547,14.356 19.8547,8.072 C19.8547,4.171 16.3357,1.004 11.9997,1.004 M11.9997,13 L11.9997,13 L12.0007,13 C14.2817,12.997 16.1397,11.14 16.1417,8.858 C16.1417,6.574 14.2837,4.717 11.9997,4.717 C9.7157,4.717 7.8577,6.574 7.8577,8.858 C7.8577,11.142 9.7157,13 11.9997,13 M11.9997,2.004 C15.7797,2.004 18.8547,4.727 18.8547,8.072 C18.8547,12.794 13.9107,19.175 11.9997,21.463 C10.0897,19.175 5.1457,12.794 5.1457,8.072 C5.1457,4.727 8.2207,2.004 11.9997,2.004" id="Fill-1" fill="#002E6D"></path>
    </g>
</svg>