<?xml version="1.0" encoding="UTF-8"?>
<svg width="24px" height="24px" viewBox="0 0 24 24" version="1.1" xmlns="http://www.w3.org/2000/svg" xmlns:xlink="http://www.w3.org/1999/xlink">
    <title>Icon/Icon-arrow-right</title>
    <g id="Icon/Icon-arrow-right" stroke="none" stroke-width="1" fill="none" fill-rule="evenodd">
        <polygon id="Fill-1" fill="#002E6D" points="11.989 3.5985 11.282 4.3055 18.476 11.5005 3.609 11.5005 3.609 12.5005 18.476 12.5005 11.282 19.6945 11.989 20.4015 20.391 11.9995"></polygon>
    </g>
</svg>