<?xml version="1.0" encoding="UTF-8"?>
<svg width="24px" height="24px" viewBox="0 0 24 24" version="1.1" xmlns="http://www.w3.org/2000/svg" xmlns:xlink="http://www.w3.org/1999/xlink">
    <title>Icon/Icon-location-fill</title>
    <g id="Icon/Icon-location-fill" stroke="none" stroke-width="1" fill="none" fill-rule="evenodd">
        <path d="M12,1.004 C16.336,1.004 19.854,4.171 19.854,8.072 C19.854,14.357 12,22.996 12,22.996 C12,22.996 4.146,14.357 4.146,8.072 C4.146,4.171 7.664,1.004 12,1.004 M12,5.717 C10.265,5.717 8.858,7.123 8.858,8.858 C8.858,10.594 10.265,12 12,12 C13.734,11.998 15.14,10.593 15.142,8.858 C15.142,7.123 13.735,5.717 12,5.717" id="Fill-1" fill="#002E6D"></path>
    </g>
</svg>