<?xml version="1.0" encoding="UTF-8"?>
<svg width="24px" height="24px" viewBox="0 0 24 24" version="1.1" xmlns="http://www.w3.org/2000/svg" xmlns:xlink="http://www.w3.org/1999/xlink">
    <title>Icon/Icon-paste</title>
    <g id="Icon/Icon-paste" stroke="none" stroke-width="1" fill="none" fill-rule="evenodd">
        <path d="M20.981,20.313 C20.981,21.14 20.308,21.813 19.481,21.813 L14.3,21.813 C13.473,21.813 12.8,21.14 12.8,20.313 L12.8,12.837 C12.8,12.01 13.473,11.337 14.3,11.337 L19.274,11.337 L20.981,13.044 L20.981,20.313 Z M11.8,12.837 L11.8,20.313 C11.8,20.409 11.819,20.5 11.829,20.594 L5.5,20.594 C4.672,20.594 4,19.921 4,19.094 L4,6.619 C4,5.792 4.672,5.119 5.5,5.119 L6.467,5.119 L6.467,6.119 L7.467,6.119 L13.706,6.119 L14.706,6.119 L14.706,5.119 L15.673,5.119 C16.501,5.119 17.173,5.792 17.173,6.619 L17.173,10.337 L14.3,10.337 C12.921,10.337 11.8,11.459 11.8,12.837 L11.8,12.837 Z M7.467,4.079 L9.546,4.079 C9.546,3.993 9.545,3.902 9.543,3.807 C9.54,3.712 9.539,3.616 9.539,3.519 C9.539,3.334 9.548,3.152 9.567,2.97 C9.585,2.789 9.632,2.626 9.705,2.483 C9.778,2.339 9.883,2.223 10.022,2.133 C10.16,2.044 10.348,2 10.586,2 C10.825,2 11.012,2.044 11.151,2.133 C11.289,2.223 11.394,2.339 11.467,2.483 C11.541,2.626 11.586,2.789 11.606,2.97 C11.625,3.152 11.634,3.334 11.634,3.519 C11.634,3.616 11.632,3.712 11.63,3.807 C11.627,3.902 11.626,3.993 11.626,4.079 L13.706,4.079 L13.706,5.119 L7.467,5.119 L7.467,4.079 Z M19.688,10.337 L18.173,10.337 L18.173,7.378 L18.173,6.619 C18.173,5.24 17.052,4.119 15.673,4.119 L14.797,4.119 L14.706,4.119 L14.706,4.079 L14.706,3.079 L13.706,3.079 L12.619,3.079 C12.614,3.007 12.608,2.937 12.6,2.867 C12.569,2.563 12.487,2.282 12.359,2.029 C12.205,1.727 11.981,1.48 11.694,1.294 C11.392,1.099 11.019,1 10.586,1 C10.153,1 9.781,1.099 9.479,1.294 C9.191,1.48 8.967,1.727 8.814,2.029 C8.685,2.282 8.604,2.563 8.573,2.867 C8.565,2.937 8.559,3.007 8.554,3.079 L7.467,3.079 L6.467,3.079 L6.467,4.079 L6.467,4.119 L6.376,4.119 L5.5,4.119 C4.121,4.119 3,5.24 3,6.619 L3,7.378 L3,19.094 L3,19.165 C3.002,19.257 3.022,19.345 3.034,19.435 C3.043,19.497 3.044,19.56 3.058,19.621 C3.081,19.727 3.117,19.827 3.153,19.927 C3.171,19.978 3.183,20.033 3.205,20.083 C3.252,20.194 3.314,20.297 3.377,20.4 C3.397,20.432 3.412,20.467 3.433,20.499 C3.515,20.62 3.61,20.731 3.711,20.835 C3.719,20.844 3.726,20.855 3.734,20.863 C4.185,21.314 4.805,21.594 5.493,21.594 L5.5,21.594 L12.166,21.594 C12.603,22.321 13.392,22.813 14.3,22.813 L19.481,22.813 C20.836,22.813 21.936,21.729 21.974,20.383 L21.974,12.623 L19.688,10.337 Z" id="Fill-1" fill="#002E6D"></path>
    </g>
</svg>