<?xml version="1.0" encoding="UTF-8"?>
<svg width="24px" height="24px" viewBox="0 0 24 24" version="1.1" xmlns="http://www.w3.org/2000/svg" xmlns:xlink="http://www.w3.org/1999/xlink">
    <title>Icon/Icon-pause</title>
    <g id="Icon/Icon-pause" stroke="none" stroke-width="1" fill="none" fill-rule="evenodd">
        <path d="M12.0149,2.50485 C9.5569,2.50485 7.1139,3.45085 5.2829,5.28185 C2.2459,8.31785 1.6439,13.03485 3.7499,16.71485 L16.7149,3.74985 C15.2549,2.91385 13.6319,2.50485 12.0149,2.50485 L12.0149,2.50485 Z M3.5769,18.30185 L3.2399,17.79185 C0.4959,13.65085 1.0579,8.09285 4.5759,4.57485 C8.0929,1.05685 13.6489,0.49685 17.7919,3.23885 L18.3019,3.57685 L3.5769,18.30185 Z M7.2859,20.25085 C10.9659,22.35585 15.6809,21.75285 18.7179,18.71785 C21.7529,15.68185 22.3569,10.96585 20.2509,7.28585 L7.2859,20.25085 Z M11.9839,22.49385 C9.9799,22.49385 7.9669,21.92585 6.2089,20.76185 L5.6999,20.42385 L20.4239,5.69885 L20.7619,6.20885 C23.5039,10.35085 22.9419,15.90785 19.4249,19.42485 C17.4019,21.44885 14.7009,22.49385 11.9839,22.49385 L11.9839,22.49385 Z" id="Fill-1" fill="#002E6D"></path>
    </g>
</svg>