<?xml version="1.0" encoding="UTF-8"?>
<svg width="24px" height="24px" viewBox="0 0 24 24" version="1.1" xmlns="http://www.w3.org/2000/svg" xmlns:xlink="http://www.w3.org/1999/xlink">
    <title>Icon/Icon-cwp-hatchCover</title>
    <g id="Icon/Icon-cwp-hatchCover" stroke="none" stroke-width="1" fill="none" fill-rule="evenodd">
        <polygon id="Path" fill="#002E6D" points="22.4835 8.66408172 22.4835 12.1440817 20.7385 12.1440817 20.7385 15.6540817 18.9925 15.6540817 18.9925 17.4090817 17.2465 17.4090817 17.2465 19.1640817 15.5005 19.1640817 15.5005 20.9180817 8.4995 20.9180817 8.4995 19.1640817 6.7535 19.1640817 6.7535 17.4090817 5.0085 17.4090817 5.0085 15.6540817 3.2625 15.6540817 3.2625 12.1440817 1.5165 12.1440817 1.5165 8.66408172 2.9995 8.66373656 3 9.41099183 21 9.41099183 20.9995 8.66373656"></polygon>
        <rect id="Rectangle" fill="#002E6D" x="4" y="6.41828156" width="16" height="2"></rect>
    </g>
</svg>