<?xml version="1.0" encoding="UTF-8"?>
<svg width="24px" height="24px" viewBox="0 0 24 24" version="1.1" xmlns="http://www.w3.org/2000/svg" xmlns:xlink="http://www.w3.org/1999/xlink">
    <title>Icon/Icon-alert</title>
    <g id="Icon/Icon-alert" stroke="none" stroke-width="1" fill="none" fill-rule="evenodd">
        <path d="M12.0003,17.5155 C10.8973,17.5155 10.0003,18.4125 10.0003,19.5155 C10.0003,20.6185 10.8973,21.5155 12.0003,21.5155 C13.1033,21.5155 14.0003,20.6185 14.0003,19.5155 C14.0003,18.4125 13.1033,17.5155 12.0003,17.5155" id="Fill-4" fill="#002E6D"></path>
        <path d="M11.9974,16.5009 C12.5404,16.5009 12.9814,16.0819 12.9774,15.6359 L14.4684,4.8699 C14.4854,4.3529 14.2414,3.7899 13.8004,3.3259 C13.3044,2.8069 12.6324,2.4919 12.0034,2.4839 L11.9814,2.4839 C11.3624,2.4839 10.7244,2.7749 10.2264,3.2859 C9.7634,3.7599 9.5094,4.3369 9.5324,4.9209 L11.0134,15.5669 C11.0134,16.0819 11.4544,16.5009 11.9974,16.5009" id="Fill-1" fill="#002E6D"></path>
    </g>
</svg>