<?xml version="1.0" encoding="UTF-8"?>
<svg width="24px" height="24px" viewBox="0 0 24 24" version="1.1" xmlns="http://www.w3.org/2000/svg" xmlns:xlink="http://www.w3.org/1999/xlink">
    <title>Icon/Icon-link-break</title>
    <g id="Icon/Icon-link-break" stroke="none" stroke-width="1" fill="none" fill-rule="evenodd">
        <polygon id="Fill-1" fill="#002E6D" points="7.14349034 7.8232 3.86949034 4.5772 4.57349034 3.8662 7.84749034 7.1122"></polygon>
        <polygon id="Fill-2" fill="#002E6D" points="18.8368903 19.5166 15.6328903 16.3406 16.3368903 15.6296 19.5408903 18.8056"></polygon>
        <path d="M15.3373903,13.584 C15.0343903,13.584 14.7303903,13.557 14.4273903,13.502 L14.6073903,12.518 C15.9493903,12.767 17.3383903,12.318 18.3263903,11.33 L19.6453903,10.012 C21.2673903,8.39 21.3183903,5.8 19.7593903,4.24 C18.1983903,2.681 15.6103903,2.732 13.9883903,4.355 L12.6703903,5.674 C11.6573903,6.685 11.2193903,8.104 11.4973903,9.47 L10.5173903,9.669 C10.1723903,7.974 10.7123903,6.216 11.9623903,4.967 L13.2813903,3.647 C15.2923903,1.636 18.5153903,1.584 20.4663903,3.533 C22.4153903,5.483 22.3643903,8.706 20.3523903,10.719 L19.0333903,12.037 C18.0353903,13.036 16.7013903,13.584 15.3373903,13.584" id="Fill-3" fill="#002E6D"></path>
        <path d="M7.02099034,21.8955 C5.74799034,21.8955 4.48799034,21.4205 3.53399034,20.4665 C1.58399034,18.5165 1.63599034,15.2935 3.64799034,13.2815 L4.96599034,11.9625 C6.21499034,10.7125 7.97399034,10.1715 9.66799034,10.5165 L9.46999034,11.4975 C8.10199034,11.2205 6.68499034,11.6585 5.67299034,12.6695 L4.35499034,13.9885 C2.73199034,15.6105 2.68099034,18.2005 4.24099034,19.7595 C5.79999034,21.3175 8.38799034,21.2665 10.0119903,19.6455 L11.3299903,18.3265 C12.3189903,17.3375 12.7629903,15.9475 12.5179903,14.6075 L13.5009903,14.4275 C13.8059903,16.0905 13.2579903,17.8125 12.0369903,19.0335 L10.7189903,20.3525 C9.69199034,21.3795 8.34899034,21.8955 7.02099034,21.8955" id="Fill-6" fill="#002E6D"></path>
    </g>
</svg>