<?xml version="1.0" encoding="UTF-8"?>
<svg width="24px" height="24px" viewBox="0 0 24 24" version="1.1" xmlns="http://www.w3.org/2000/svg" xmlns:xlink="http://www.w3.org/1999/xlink">
    <title>Icon/Icon-newfull-view</title>
    <g id="Icon/Icon-newfull-view" stroke="none" stroke-width="1" fill="none" fill-rule="evenodd">
        <polyline id="Rectangle-Copy" stroke="#002E6D" points="5.49902153 8.01751232 5.49902153 3.6047287 22.5161649 3.6047287 22.5161649 7.37754156 22.5161649 14.5025177 19.0020523 14.5025177"></polyline>
        <polyline id="Rectangle-Copy-2" stroke="#002E6D" transform="translate(9.538572, 15.481255) rotate(-180.000000) translate(-9.538572, -15.481255) " points="1.53468323 16.9218214 1.53468323 9.56443596 17.5424614 9.56443596 17.5424614 13.6612399 17.5424614 21.3980749 6.05259323 21.3980749"></polyline>
        <polygon id="Fill-2-Copy" fill="#002E6D" transform="translate(16.493225, 10.500286) rotate(-135.000000) translate(-16.493225, -10.500286) " points="16.4932253 6.94878587 13.3114389 10.1305723 14.0184389 10.8375723 15.9942253 8.86178587 15.9942253 14.0517859 16.9932253 14.0517859 16.9932253 8.86178587 18.9680118 10.8375723 19.6750118 10.1305723"></polygon>
    </g>
</svg>