<?xml version="1.0" encoding="UTF-8"?>
<svg width="24px" height="24px" viewBox="0 0 24 24" version="1.1" xmlns="http://www.w3.org/2000/svg" xmlns:xlink="http://www.w3.org/1999/xlink">
    <title>Icon/Icon-paint</title>
    <g id="Icon/Icon-paint" stroke="none" stroke-width="1" fill="none" fill-rule="evenodd">
        <path d="M20.2418,15.0863 L19.6738,15.8993 C19.2388,16.5213 17.8188,18.6353 17.8188,19.7053 C17.8188,21.0183 18.8878,22.0863 20.1998,22.0863 C21.5128,22.0863 22.5808,21.0173 22.5808,19.7043 C22.5808,18.6403 21.2148,16.5293 20.7958,15.9073 L20.2418,15.0863 Z M20.2268,16.8613 C21.1168,18.2453 21.5808,19.3203 21.5808,19.7043 C21.5808,20.4663 20.9608,21.0863 20.1998,21.0863 C19.4378,21.0863 18.8188,20.4673 18.8188,19.7053 C18.8188,19.3253 19.3018,18.2493 20.2268,16.8613 L20.2268,16.8613 Z" id="Fill-1" fill="#002E6D"></path>
        <path d="M17.8913,12.641 L17.4783,12.641 L17.1853,12.934 L16.7503,13.369 L2.4713,13.369 C2.4483,13.282 2.4193,13.196 2.4193,13.102 C2.4193,12.828 2.5233,12.579 2.7183,12.384 L11.2673,3.835 L20.0173,12.64 L17.8913,12.641 Z M10.1953,19.923 C10.0003,20.119 9.7523,20.222 9.4793,20.222 C9.2083,20.222 8.9543,20.117 8.7673,19.928 L3.2623,14.369 L15.7503,14.369 L10.1953,19.923 Z M4.6853,6.226 C4.6853,5.342 5.0303,4.51 5.6563,3.884 C6.8163,2.726 8.7663,2.656 10.0383,3.649 L5.4163,8.271 C4.9523,7.688 4.6853,6.98 4.6853,6.226 L4.6853,6.226 Z M11.2693,2.418 L10.7483,2.939 C9.9763,2.287 9.0183,1.915 7.9953,1.914 C6.8463,1.914 5.7643,2.363 4.9493,3.177 C4.1343,3.992 3.6853,5.075 3.6853,6.226 C3.6853,7.246 4.0573,8.204 4.7093,8.978 L2.0113,11.677 C1.6293,12.059 1.4193,12.565 1.4193,13.102 C1.4193,13.641 1.6283,14.145 2.0073,14.522 L8.0563,20.632 C8.4363,21.012 8.9423,21.222 9.4793,21.222 C10.0183,21.222 10.5243,21.01 10.9033,20.629 L17.8923,13.641 L22.4193,13.64 L11.2693,2.418 Z" id="Fill-4" fill="#002E6D"></path>
    </g>
</svg>