<?xml version="1.0" encoding="UTF-8"?>
<svg width="24px" height="24px" viewBox="0 0 24 24" version="1.1" xmlns="http://www.w3.org/2000/svg" xmlns:xlink="http://www.w3.org/1999/xlink">
    <title>Icon/Icon-send</title>
    <g id="Icon/Icon-send" stroke="none" stroke-width="1" fill="none" fill-rule="evenodd">
        <path d="M2.9895,12.5 L9.7415,12.5 C10.0175,12.5 10.2415,12.276 10.2415,12 C10.2415,11.724 10.0175,11.5 9.7415,11.5 L2.9895,11.5 L2.9895,3.608 L19.7745,12 L2.9895,20.392 L2.9895,12.5 Z M1.9895,1.99 L1.9895,22.01 L22.0105,12 L1.9895,1.99 Z" id="Fill-1" fill="#002E6D"></path>
    </g>
</svg>