<?xml version="1.0" encoding="UTF-8"?>
<svg width="24px" height="24px" viewBox="0 0 24 24" version="1.1" xmlns="http://www.w3.org/2000/svg" xmlns:xlink="http://www.w3.org/1999/xlink">
    <title>Icon/Icon-add-row</title>
    <g id="Icon/Icon-add-row" stroke="none" stroke-width="1" fill="none" fill-rule="evenodd">
        <polygon id="Fill-1" fill="#002E6D" points="1.5 4.25015 1.5 13.25015 15 13.25015 15 12.25015 2.5 12.25015 2.5 5.25015 21.5 5.25015 21.5 12.25015 19 12.25015 19 13.25015 22.5 13.25015 22.5 4.25015"></polygon>
        <polygon id="Fill-2" fill="#002E6D" points="16.5003 11.74985 16.5003 15.24985 13.0003 15.24985 13.0003 16.24985 16.5003 16.24985 16.5003 19.74985 17.5003 19.74985 17.5003 16.24985 21.0003 16.24985 21.0003 15.24985 17.5003 15.24985 17.5003 11.74985"></polygon>
    </g>
</svg>