<?xml version="1.0" encoding="UTF-8"?>
<svg width="24px" height="24px" viewBox="0 0 24 24" version="1.1" xmlns="http://www.w3.org/2000/svg" xmlns:xlink="http://www.w3.org/1999/xlink">
    <title>Icon/Icon-copy</title>
    <g id="Icon/Icon-copy" stroke="none" stroke-width="1" fill="none" fill-rule="evenodd">
        <path d="M20.5566,15.9754 C20.5566,16.8024 19.8836,17.4754 19.0566,17.4754 L18.1806,17.4754 L18.1806,7.9774 L15.8876,5.6844 L7.3756,5.6844 L7.3756,4.4994 C7.3756,3.6724 8.0486,2.9994 8.8756,2.9994 L18.8496,2.9994 L20.5566,4.7064 L20.5566,15.9754 Z M17.1806,19.6604 C17.1806,20.4874 16.5076,21.1604 15.6806,21.1604 L5.4996,21.1604 C4.6726,21.1604 3.9996,20.4874 3.9996,19.6604 L3.9996,8.1844 C3.9996,7.3574 4.6726,6.6844 5.4996,6.6844 L15.4736,6.6844 L17.1806,8.3914 L17.1806,19.6604 Z M19.2636,1.9994 L8.8756,1.9994 C7.4966,1.9994 6.3756,3.1214 6.3756,4.4994 L6.3756,5.6844 L5.4996,5.6844 C4.1206,5.6844 2.9996,6.8054 2.9996,8.1844 L2.9996,19.6604 C2.9996,21.0384 4.1206,22.1604 5.4996,22.1604 L15.6806,22.1604 C17.0596,22.1604 18.1806,21.0384 18.1806,19.6604 L18.1806,18.4754 L19.0566,18.4754 C20.4356,18.4754 21.5566,17.3544 21.5566,15.9754 L21.5566,4.2924 L19.2636,1.9994 Z" id="Fill-1" fill="#002E6D"></path>
    </g>
</svg>