<?xml version="1.0" encoding="UTF-8"?>
<svg width="24px" height="24px" viewBox="0 0 24 24" version="1.1" xmlns="http://www.w3.org/2000/svg" xmlns:xlink="http://www.w3.org/1999/xlink">
    <title>Icon/Icon-greater-equal</title>
    <g id="Icon/Icon-greater-equal" stroke="none" stroke-width="1" fill="none" fill-rule="evenodd">
        <polygon id="Fill-1" fill="#002E6D" points="3.2415 20.4816 20.7615 20.4816 20.7615 19.4816 3.2415 19.4816"></polygon>
        <polygon id="Fill-2" fill="#002E6D" points="3.6185 3.5184 3.2415 4.4454 18.1025 10.4814 3.2415 16.5184 3.6185 17.4454 20.7585 10.4814"></polygon>
    </g>
</svg>