<?xml version="1.0" encoding="UTF-8"?>
<svg width="24px" height="24px" viewBox="0 0 24 24" version="1.1" xmlns="http://www.w3.org/2000/svg" xmlns:xlink="http://www.w3.org/1999/xlink">
    <title>Icon/Icon-import</title>
    <g id="Icon/Icon-import" stroke="none" stroke-width="1" fill="none" fill-rule="evenodd">
        <polygon id="Fill-1" fill="#002E6D" points="11.5005 3.4184 11.5005 13.6074 8.1115 10.2184 7.4035 10.9254 11.9995 15.5214 16.5965 10.9254 15.8885 10.2184 12.5005 13.6074 12.5005 3.4184"></polygon>
        <polygon id="Fill-2" fill="#002E6D" points="21 14.0816 21 19.5806 3 19.5806 3 14.0816 2 14.0816 2 20.5816 22 20.5816 22 14.0816"></polygon>
    </g>
</svg>