<?xml version="1.0" encoding="UTF-8"?>
<svg width="24px" height="24px" viewBox="0 0 24 24" version="1.1" xmlns="http://www.w3.org/2000/svg" xmlns:xlink="http://www.w3.org/1999/xlink">
    <title>Icon/Icon-angle-up</title>
    <g id="Icon/Icon-angle-up" stroke="none" stroke-width="1" fill="none" fill-rule="evenodd">
        <polygon id="Fill-1" fill="#002E6D" points="12.0005 7.47 3.6465 15.823 4.3545 16.53 12.0005 8.884 19.6465 16.53 20.3535 15.823"></polygon>
    </g>
</svg>