<?xml version="1.0" encoding="UTF-8"?>
<svg width="24px" height="24px" viewBox="0 0 24 24" version="1.1" xmlns="http://www.w3.org/2000/svg" xmlns:xlink="http://www.w3.org/1999/xlink">
    <title>Icon/Icon-QC</title>
    <g id="Icon/Icon-QC" stroke="none" stroke-width="1" fill="none" fill-rule="evenodd">
        <path d="M19.2142,8.1239 L18.8722,7.0309 L20.3532,8.1239 L19.2142,8.1239 Z M18.9812,8.1239 L18.3502,8.1239 L18.6662,7.1029 L18.9812,8.1239 Z M12.5532,8.1239 L12.5532,2.2809 L18.5072,6.7409 L18.1082,8.1239 L12.5532,8.1239 Z M11.9102,6.8519 L6.3052,6.8519 L11.9102,2.4899 L11.9102,6.8519 Z M5.8492,8.0859 L11.6802,8.0859 L11.6802,7.7869 L5.8492,7.7869 L5.8492,8.0859 Z M11.6802,16.8529 L6.6182,16.8529 L6.0752,16.8529 L11.5832,9.6559 L11.6802,9.6559 L11.6802,16.8529 Z M5.8502,16.4879 L5.8502,12.9429 L8.5772,12.9429 L8.5762,12.9439 L8.5512,12.9439 L8.5652,12.9589 L5.9162,16.4119 L5.8502,16.4879 Z M5.8502,9.7139 L5.8502,9.4739 L11.2382,9.4739 L8.8422,12.5969 L5.8502,12.5969 L5.8502,9.7139 Z M23.8682,9.2659 L23.0192,8.3329 L23.0452,8.3329 L23.0452,8.1239 L20.8082,8.1239 L12.5532,1.9399 L12.5532,1.7469 L11.9102,1.7469 L11.9102,1.9739 L5.6932,6.8109 L5.6932,6.1519 L4.9772,6.1519 L4.9772,6.5809 L3.4282,6.5809 L3.4282,8.1239 L1.0882,8.1239 L1.0392,8.1239 L1.0392,8.3329 L1.0392,8.3329 L0.1902,9.2659 L0.0002,9.2659 L0.0002,9.4739 L3.9522,9.4739 L3.9522,9.6329 L4.1342,9.6329 L4.3072,9.9569 C4.3072,9.9589 4.3072,9.9609 4.3082,9.9639 L4.6262,10.5979 C4.6402,10.6259 4.9772,10.6489 4.9772,10.6489 L4.9772,20.8039 L4.6762,20.8039 L4.6762,21.7699 L4.7302,21.7699 L4.7302,22.2529 L5.9452,22.2529 L5.9452,21.7699 L5.9992,21.7699 L5.9992,20.8039 L5.8502,20.8039 L5.8502,17.8769 L11.6802,17.8769 L11.6802,20.8039 L11.5362,20.8039 L11.5332,21.7679 L11.5362,21.7679 L11.5362,21.7699 L11.5902,21.7699 L11.5902,22.2529 L12.8052,22.2529 L12.8052,21.7699 L12.8592,21.7699 L12.8592,20.8039 L12.5712,20.8039 L12.5532,9.4989 L12.9372,9.4949 L12.9372,10.6259 L13.7062,10.6259 C13.7722,10.6259 14.0322,10.1619 14.0322,10.1619 C14.0322,10.1619 14.0862,9.4969 14.0862,9.4739 L19.1482,9.4739 L19.1482,9.6629 L19.1992,9.6629 C19.1992,9.6669 19.1982,9.6709 19.1982,9.6749 C19.1982,9.7769 19.2842,9.8599 19.3892,9.8599 C19.4942,9.8599 19.5802,9.7769 19.5802,9.6749 C19.5802,9.6709 19.5792,9.6669 19.5792,9.6629 L20.9382,9.6629 C20.9382,9.6669 20.9372,9.6709 20.9372,9.6749 C20.9372,9.7769 21.0232,9.8599 21.1282,9.8599 C21.2342,9.8599 21.3192,9.7769 21.3192,9.6749 C21.3192,9.6709 21.3182,9.6669 21.3182,9.6629 L21.3552,9.6629 L21.3552,9.4739 L24.0002,9.4739 L24.0002,9.2659 L23.8682,9.2659 Z" id="Fill-1" fill="#002E6D"></path>
    </g>
</svg>