<?xml version="1.0" encoding="UTF-8"?>
<svg width="24px" height="24px" viewBox="0 0 24 24" version="1.1" xmlns="http://www.w3.org/2000/svg" xmlns:xlink="http://www.w3.org/1999/xlink">
    <title>Icon/Icon-user-fill</title>
    <g id="Icon/Icon-user-fill" stroke="none" stroke-width="1" fill="none" fill-rule="evenodd">
        <path d="M12,13.2 C15.249,13.2 17.918,15.867 18.135,19.254 C16.479,20.655 14.338,21.5 12,21.5 C9.662,21.5 7.521,20.655 5.864,19.254 C6.082,15.867 8.751,13.2 12,13.2 Z M12,2.5 C17.247,2.5 21.5,6.753 21.5,12 C21.5,14.456 20.568,16.694 19.04,18.379 C18.54,15.431 16.398,13.075 13.636,12.397 C15.341,11.74 16.55,10.086 16.55,8.15 C16.55,5.637 14.513,3.6 12,3.6 C9.487,3.6 7.45,5.637 7.45,8.15 C7.45,10.086 8.659,11.74 10.364,12.397 C7.602,13.075 5.46,15.431 4.961,18.38 C3.432,16.694 2.5,14.456 2.5,12 C2.5,6.753 6.753,2.5 12,2.5 Z M12,4.6 C13.96,4.6 15.55,6.189 15.55,8.15 C15.55,10.111 13.96,11.7 12,11.7 C10.04,11.7 8.45,10.111 8.45,8.15 C8.45,6.189 10.04,4.6 12,4.6 Z" id="Combined-Shape" fill="#002E6D"></path>
    </g>
</svg>