<?xml version="1.0" encoding="UTF-8"?>
<svg width="24px" height="24px" viewBox="0 0 24 24" version="1.1" xmlns="http://www.w3.org/2000/svg" xmlns:xlink="http://www.w3.org/1999/xlink">
    <title>Icon/Icon-dropdown</title>
    <g id="Icon/Icon-dropdown" stroke="none" stroke-width="1" fill="none" fill-rule="evenodd">
        <path d="M20.696,9 L12.7071068,16.988852 C12.3165825,17.3793763 11.6834175,17.3793763 11.2928932,16.988852 L3.304,9 L4.718,9 L12,16.2817453 L19.282,9 L20.696,9 Z" id="Combined-Shape" fill="#002E6D" fill-rule="nonzero"></path>
    </g>
</svg>