<?xml version="1.0" encoding="UTF-8"?>
<svg width="24px" height="24px" viewBox="0 0 24 24" version="1.1" xmlns="http://www.w3.org/2000/svg" xmlns:xlink="http://www.w3.org/1999/xlink">
    <title>Icon/Icon-anchor</title>
    <g id="Icon/Icon-anchor" stroke="none" stroke-width="1" fill="none" fill-rule="evenodd">
        <path d="M12.0002,4.2312 C12.5532,4.2312 13.0002,4.6782 13.0002,5.2312 C13.0002,5.7832 12.5532,6.2312 12.0002,6.2312 C11.4472,6.2312 11.0002,5.7832 11.0002,5.2312 C11.0002,4.6782 11.4472,4.2312 12.0002,4.2312 M21.4722,13.9872 C21.3072,13.8002 21.0782,13.7182 20.8302,13.7182 L18.1592,13.7182 L18.1592,15.3752 L19.7742,15.3752 C18.9462,18.0662 15.6542,19.9702 12.8392,20.3022 L12.8392,9.5342 L19.0002,9.5342 L19.0002,7.5342 L14.2482,7.5342 C14.8442,6.9462 15.2202,6.1312 15.2202,5.2292 C15.2202,3.4492 13.7912,2.0002 12.0102,2.0002 C10.2292,2.0002 8.8012,3.4492 8.8012,5.2292 C8.8012,6.1312 9.1462,6.9462 9.7362,7.5342 L5.0002,7.5342 L5.0002,9.5342 L11.1822,9.5342 L11.1822,20.3022 C8.2832,19.9702 5.0742,18.0662 4.2462,15.3752 L5.8612,15.3752 L5.8612,13.7182 L3.1902,13.7182 C2.9422,13.7182 2.7142,13.8002 2.5492,13.9872 C2.3832,14.1732 2.3202,14.4012 2.3622,14.6502 C3.0872,18.9152 7.7042,22.0002 12.0102,22.0002 C16.3162,22.0002 20.9342,18.9152 21.6382,14.6502 C21.6792,14.4012 21.6172,14.1732 21.4722,13.9872" id="Fill-1" fill="#002E6D"></path>
    </g>
</svg>