<?xml version="1.0" encoding="UTF-8"?>
<svg width="24px" height="24px" viewBox="0 0 24 24" version="1.1" xmlns="http://www.w3.org/2000/svg" xmlns:xlink="http://www.w3.org/1999/xlink">
    <title>Icon/Icon-column</title>
    <g id="Icon/Icon-column" stroke="none" stroke-width="1" fill="none" fill-rule="evenodd">
        <path d="M8.0005,3.5 L8.0005,20.5 L2.0005,20.5 L2.0005,3.5 L8.0005,3.5 Z M7.0015,4.5 L3.0005,4.5 L3.0005,19.5 L7.0015,19.5 L7.0015,4.5 Z" id="Combined-Shape" fill="#002E6D"></path>
        <path d="M14.9995,3.5 L14.9995,20.5 L9.0005,20.5 L9.0005,3.5 L14.9995,3.5 Z M14.0005,4.5 L10.0005,4.5 L10.0005,19.5 L14.0005,19.5 L14.0005,4.5 Z" id="Combined-Shape" fill="#002E6D"></path>
        <path d="M21.9995,3.5 L21.9995,20.5 L16.0005,20.5 L16.0005,3.5 L21.9995,3.5 Z M21.0005,4.5 L17.0005,4.5 L17.0005,19.5 L21.0005,19.5 L21.0005,4.5 Z" id="Combined-Shape" fill="#002E6D"></path>
    </g>
</svg>